{
  "images" : [
    {
      "idiom" : "universal",
      "filename" : "b_reset_map_pressed_@1.png",
      "scale" : "1x"
    },
    {
      "idiom" : "universal",
      "filename" : "b_reset_map_pressed_@2.png",
      "scale" : "2x"
    },
    {
      "idiom" : "universal",
      "filename" : "b_reset_map_pressed_@3.png",
      "scale" : "3x"
    }
  ],
  "info" : {
    "version" : 1,
    "author" : "xcode"
  }
}