[
    {
        "featureType": "administrative.country",
        "elementType": "labels.text",
        "stylers": [
            {
                "saturation": "-100"
            }
        ]
    },
    {
        "featureType": "administrative.province",
        "elementType": "labels.text",
        "stylers": [
            {
                "saturation": "-100"
            }
        ]
    },
    {
        "featureType": "administrative.locality",
        "elementType": "labels.text",
        "stylers": [
            {
                "saturation": "-100"
            }
        ]
    },
    {
        "featureType": "administrative.neighborhood",
        "elementType": "all",
        "stylers": [
            {
                "saturation": "-100"
            }
        ]
    },
    {
        "featureType": "landscape.man_made",
        "elementType": "geometry.fill",
        "stylers": [
            {
                "hue": "#009bff"
            },
            {
                "saturation": "-80"
            },
            {
                "lightness": "52"
            },
            {
                "gamma": "0.5"
            },
            {
                "weight": "3.34"
            }
        ]
    },
    {
        "featureType": "landscape.man_made",
        "elementType": "geometry.stroke",
        "stylers": [
            {
                "color": "#007fff"
            },
            {
                "saturation": "-100"
            },
            {
                "lightness": "85"
            },
            {
                "gamma": "0.5"
            },
            {
                "visibility": "on"
            }
        ]
    },
    {
        "featureType": "poi.attraction",
        "elementType": "all",
        "stylers": [
            {
                "visibility": "off"
            }
        ]
    },
    {
        "featureType": "poi.business",
        "elementType": "all",
        "stylers": [
            {
                "visibility": "off"
            }
        ]
    },
    {
        "featureType": "poi.government",
        "elementType": "all",
        "stylers": [
            {
                "visibility": "off"
            }
        ]
    },
    {
        "featureType": "poi.medical",
        "elementType": "all",
        "stylers": [
            {
                "visibility": "off"
            }
        ]
    },
    {
        "featureType": "poi.place_of_worship",
        "elementType": "all",
        "stylers": [
            {
                "visibility": "off"
            }
        ]
    },
    {
        "featureType": "poi.school",
        "elementType": "all",
        "stylers": [
            {
                "visibility": "off"
            }
        ]
    },
    {
        "featureType": "poi.sports_complex",
        "elementType": "all",
        "stylers": [
            {
                "visibility": "off"
            }
        ]
    },
    {
        "featureType": "road",
        "elementType": "all",
        "stylers": [
            {
                "visibility": "simplified"
            }
        ]
    },
    {
        "featureType": "road.highway",
        "elementType": "geometry.fill",
        "stylers": [
            {
                "color": "#ffffff"
            },
            {
                "visibility": "on"
            }
        ]
    },
    {
        "featureType": "road.highway",
        "elementType": "geometry.stroke",
        "stylers": [
            {
                "visibility": "on"
            }
        ]
    },
    {
        "featureType": "road.highway",
        "elementType": "labels.text",
        "stylers": [
            {
                "color": "#808080"
            }
        ]
    },
    {
        "featureType": "road.highway",
        "elementType": "labels.icon",
        "stylers": [
            {
                "hue": "#009bff"
            }
        ]
    },
    {
        "featureType": "road.arterial",
        "elementType": "labels.icon",
        "stylers": [
            {
                "visibility": "off"
            }
        ]
    },
    {
        "featureType": "water",
        "elementType": "geometry.fill",
        "stylers": [
            {
                "color": "#92d2f5"
            }
        ]
    },
    {
        "featureType": "water",
        "elementType": "labels.text",
        "stylers": [
            {
                "color": "#435f9c"
            }
        ]
    }
]